…
The data we are looking at are spatial fields of storm track density (number of storms that pass through an area).
We have data from 4 climate models that have simulated past and future climate.
We also have historical observation data.
The area we are looking at is (roughly) Europe and the season is winter (DJF).


```r
load('data/storm-track-density.Rdata')
storms
```

```
## # A tibble: 4,320 x 5
##         lat        lon   model experiment     tden
##       <dbl>      <dbl>  <fctr>     <fctr>    <dbl>
##  1 36.47029 -14.161041 model_1 historical 4.460165
##  2 36.47029 -11.645844 model_1 historical 4.388444
##  3 36.47029  -9.130646 model_1 historical 4.148048
##  4 36.47029  -6.615448 model_1 historical 3.544464
##  5 36.47029  -4.100250 model_1 historical 3.052784
##  6 36.47029  -1.585052 model_1 historical 2.820646
##  7 36.47029   1.257596 model_1 historical 3.032609
##  8 36.47029   3.772789 model_1 historical 3.530901
##  9 36.47029   6.287981 model_1 historical 4.269177
## 10 36.47029   8.803174 model_1 historical 5.247809
## # ... with 4,310 more rows
```
…
